AS139070
AS139190
AS13949
AS15169
AS16550
AS16591
AS19448
AS19527
AS22577
AS22859
AS26684
AS26910
AS36039
AS36040
AS36384
AS36385
AS36492
AS36987
AS394507
AS394639
AS394699
AS395973
AS396982
AS40873
AS41264
AS43515
AS45566
AS6432