185.93.228.0/24
185.93.229.0/24
185.93.230.0/24
185.93.231.0/24
192.124.249.0/24
192.161.0.0/24
192.88.134.0/24
192.88.135.0/24
193.19.224.0/24
193.19.225.0/24
66.248.200.0/24
66.248.201.0/24
66.248.202.0/24
66.248.203.0/24